0000.000 (1) Opened log file at time: Fri, 09 Feb 2018 09:32:08 +0000 on http://localhost
0000.002 (1) UpdraftPlus WordPress backup plugin (https://updraftplus.com): 1.13.16 WP: 4.8.4 PHP: 7.0.8 (apache2handler, Darwin gabor-11563.intern 15.3.0 Darwin Kernel Version 15.3.0: Thu Dec 10 18:40:58 PST 2015; root:xnu-3248.30.4~1/RELEASE_X86_64 x86_64) MySQL: 5.5.42 WPLANG: de_DE Server: Apache safe_mode: 0 max_execution_time: 900 memory_limit: 256M (used: 38.4M | 40M) multisite: N openssl: OpenSSL 0.9.8y 5 Feb 2013 mcrypt: Y LANG:  ZipArchive::addFile: Y
0000.003 (1) Free space on disk containing Updraft's temporary directory: 61285.9 MB
0000.005 (1) This backup task (0d8c25316018) is either complete or began over 2 days ago: ending (1518168728.22, ) (existing jobdata keys: )
